747881 163495 509
911793 863230 476
581808 720622 509
627542 609551 509
528238 903377 525
855097 534626 525
584909 361716 470
790206 240523 509
526823 378907 470
96412 130282 354
457109 648802 509
664627 857942 525
476218 967963 525
488793 219536 449
555564 997908 525
904942 214756 525
312152 498548 449
74999 694622 509
929669 318475 525
96042 936395 525
308656 396288 441
258148 505962 449
122613 595076 470
840211 911503 476
394548 167433 443
543911 658220 509
278017 743506 509
781554 847452 525
307618 527221 470
630643 819297 504
782381 526502 509
119283 25507 354
867744 167403 525
426019 428587 374
35493 878580 525
563694 549473 421
675674 456188 509
41817 400638 443
245891 261786 363
195632 249808 443
737219 364453 509
341031 673351 509
593163 801609 509
152133 542065 470
15077 415858 449
455259 297420 449
87290 377616 443
537820 204438 470
135745 589187 470
254556 562853 470
856515 267122 525
349768 459430 449
992822 451352 525
498217 483950 426
439469 529760 470
955553 890480 507
342543 317857 384
333571 776213 509
7698 329389 443
148296 635573 509
611773 295682 470
232483 835945 509
813558 653873 504
668119 224650 509
482846 637698 509
177552 704056 509
400936 919808 525
252789 485130 449
597448 642128 509
978483 122905 525
220688 299133 443
75525 815534 509
375409 181189 443
153765 176810 383
837309 754296 468
684743 340240 509
410427 453557 418
972700 402883 525
963194 724680 525
856690 319531 525
676492 929746 525
963738 5026 525
455075 575992 470
19865 14822 279
413993 500663 444
776593 14497 509
691950 192367 509
565490 160298 470
465089 95709 449
823798 46927 509
170079 813108 509
926695 159328 525
789520 918156 525
769367 21371 509
820279 778230 468
77218 912592 525
689868 596838 509
283734 922106 525
330065 835019 509
433731 123418 449
463916 565076 470
136553 577695 470
631254 44070 509
897791 605840 525
413612 56583 449
964834 858547 507
50788 230539 386
343041 108001 443
525765 866875 525
348935 649803 509
165696 534332 470
207584 159382 373
226338 236305 443
10251 419093 449
130546 765296 509
838847 486236 525
623995 495357 470
79373 999121 525
916733 382119 525
120330 608722 470
690369 587706 509
566512 579246 390
283158 913504 525
694857 209037 509
925761 496330 525
12944 861863 525
159167 96247 383
396838 942428 525
845220 578328 525
150350 943868 525
174340 301245 443
487997 434937 444
235021 274860 407
346950 133349 443
693329 480476 509
153309 268527 443
271102 235068 407
183446 815415 509
746622 360060 509
182049 784012 509
260494 102774 443
178731 525477 470
349337 452920 449
194159 851068 525
207270 369746 443
299154 673427 509
490178 210684 449
827870 326281 509
29583 844651 525
154300 156026 326
696399 400840 509
717644 951568 525
314102 828446 509
116457 612436 470
686762 500192 509
192498 993942 525
850214 907332 445
31583 550639 470
328905 385073 441
602099 114817 470
540051 417890 470
931014 344750 525
236595 803022 509
7179 9406 260
571345 440505 470
216964 764890 509
222982 566110 470
414670 209198 449
231045 114332 443
958709 104506 525
88718 167733 383
774754 667760 504
284815 716902 509
524240 59642 470
179504 921190 525
96555 950569 525
759983 927762 525
130811 398327 443
248429 643251 509
588664 738966 509
877308 158975 525
33213 271946 443
71044 233424 443
482123 922552 525
786871 316893 509
733280 864307 525
466223 927025 525
174406 980144 525
805959 865344 525
265824 740871 509
203317 332445 443
491515 545712 470
346773 451566 449
423010 368865 449
628508 90354 509
366822 851050 525
413649 992216 525
703495 68832 509
157669 224498 386
612141 702981 509
512700 696511 509
929923 366104 525
724754 906370 525
884675 908940 445
543559 979242 525
506524 849060 525
873588 180108 525
513092 899760 525
903071 119099 525
26262 173952 383
857955 886870 432
90527 593152 470
101959 637881 509
40574 851895 525
434848 959548 525
608058 377412 470
532697 795133 509
658357 690559 442
