747881 163495
911793 863230
581808 720622
627542 609551
528238 903377
855097 534626
584909 361716
790206 240523
526823 378907
96412 130282
457109 648802
664627 857942
476218 967963
488793 219536
555564 997908
904942 214756
312152 498548
74999 694622
929669 318475
96042 936395
308656 396288
258148 505962
122613 595076
840211 911503
394548 167433
543911 658220
278017 743506
781554 847452
307618 527221
630643 819297
782381 526502
119283 25507
867744 167403
426019 428587
35493 878580
563694 549473
675674 456188
41817 400638
245891 261786
195632 249808
737219 364453
341031 673351
593163 801609
152133 542065
15077 415858
455259 297420
87290 377616
537820 204438
135745 589187
254556 562853
856515 267122
349768 459430
992822 451352
498217 483950
439469 529760
955553 890480
342543 317857
333571 776213
7698 329389
148296 635573
611773 295682
232483 835945
813558 653873
668119 224650
482846 637698
177552 704056
400936 919808
252789 485130
597448 642128
978483 122905
220688 299133
75525 815534
375409 181189
153765 176810
837309 754296
684743 340240
410427 453557
972700 402883
963194 724680
856690 319531
676492 929746
963738 5026
455075 575992
19865 14822
413993 500663
776593 14497
691950 192367
565490 160298
465089 95709
823798 46927
170079 813108
926695 159328
789520 918156
769367 21371
820279 778230
77218 912592
689868 596838
283734 922106
330065 835019
433731 123418
463916 565076
136553 577695
631254 44070
897791 605840
413612 56583
964834 858547
50788 230539
343041 108001
525765 866875
348935 649803
165696 534332
207584 159382
226338 236305
10251 419093
130546 765296
838847 486236
623995 495357
79373 999121
916733 382119
120330 608722
690369 587706
566512 579246
283158 913504
694857 209037
925761 496330
12944 861863
159167 96247
396838 942428
845220 578328
150350 943868
174340 301245
487997 434937
235021 274860
346950 133349
693329 480476
153309 268527
271102 235068
183446 815415
746622 360060
182049 784012
260494 102774
178731 525477
349337 452920
194159 851068
207270 369746
299154 673427
490178 210684
827870 326281
29583 844651
154300 156026
696399 400840
717644 951568
314102 828446
116457 612436
686762 500192
192498 993942
850214 907332
31583 550639
328905 385073
602099 114817
540051 417890
931014 344750
236595 803022
7179 9406
571345 440505
216964 764890
222982 566110
414670 209198
231045 114332
958709 104506
88718 167733
774754 667760
284815 716902
524240 59642
179504 921190
96555 950569
759983 927762
130811 398327
248429 643251
588664 738966
877308 158975
33213 271946
71044 233424
482123 922552
786871 316893
733280 864307
466223 927025
174406 980144
805959 865344
265824 740871
203317 332445
491515 545712
346773 451566
423010 368865
628508 90354
366822 851050
413649 992216
703495 68832
157669 224498
612141 702981
512700 696511
929923 366104
724754 906370
884675 908940
543559 979242
506524 849060
873588 180108
513092 899760
903071 119099
26262 173952
857955 886870
90527 593152
101959 637881
40574 851895
434848 959548
608058 377412
532697 795133
658357 690559
