242037 553770
745816 411312
290014 849529
751318 727788
149089 969264
750623 52886
975162 121464
453733 695448
562664 246234
78585 778061
547473 601303
299410 21007
279889 538516
619877 603188
247377 862793
797377 557632
863319 48054
414756 578735
731063 798324
344706 859885
576671 395290
539387 92427
102746 341278
13197 559220
996442 53163
868647 967606
560457 997032
675049 646880
460914 108571
158807 421128
279959 782031
437564 985650
691974 185102
439468 743311
709335 38060
311900 232027
608756 88920
211945 782729
107585 490613
549061 526502
927925 393735
879035 727330
856729 855877
904818 739064
365502 347445
201089 998678
640228 289848
601281 287727
378478 187260
999149 569235
328686 507435
696274 949631
188643 124752
677954 869971
837541 505643
121819 685763
434371 923794
234246 332293
884079 819001
231343 817578
638860 434225
536624 451068
786321 873937
977015 935318
745175 777303
704103 862293
88425 335835
212800 280812
44944 165789
850027 626033
862701 86116
754213 584653
65903 657742
314718 338450
589822 395796
706161 853009
881254 396809
745930 376470
476940 794888
485296 901098
595060 708226
533347 611837
461889 17132
150028 61528
622545 975619
865880 945185
289939 418239
532676 303292
113485 850560
883568 235777
789292 479182
896697 72536
151360 636088
701555 382701
891990 183127
663525 222137
210556 993399
656993 446801
989444 180958
722514 877139
55117 862372
499349 553827
777313 315071
353748 286409
947313 866493
324461 420976
841696 230026
692965 651579
674214 753177
716993 996749
446335 590216
340262 367013
223507 495789
987145 619180
887335 424060
502810 298105
851344 805620
561766 819995
113029 154915
156766 170145
539660 877950
117012 549595
175583 477179
592173 244115
917799 109775
798610 152290
802542 330417
779969 704916
131572 900047
270082 87946
737794 366299
479923 855120
119946 772965
760568 986258
156308 130550
451265 383931
777634 700751
817979 708221
225650 917910
78004 411117
938597 226256
360377 85613
520550 389031
792962 755658
656955 871581
256566 587960
369650 609949
989332 966522
487675 274379
270661 798686
50926 895676
560053 471390
788007 403744
109217 348787
799821 26666
999641 241708
261332 597704
686773 341438
225845 395196
196537 816258
305941 726980
969371 641340
711389 244453
981031 285891
900268 181252
50192 707400
521559 849829
191996 414520
7868 777227
13699 620475
525575 800297
257005 713585
40977 210414
37587 99310
255727 840029
180215 607974
128159 963778
222222 466744
920090 346547
671026 132153
652691 475580
607336 913266
699633 529040
513993 157757
55326 114537
408003 721646
13554 359353
873721 909700
625248 719052
567271 820244
150167 634258
789513 668023
750130 681752
592492 642676
575318 555899
535670 907608
749540 823403
119408 466206
684817 96247
606634 395683
398086 400171
137604 334969
307990 437782
591333 927383
261391 752983
34572 54796
834844 155721
601792 370386
722847 674028
396385 839470
161616 42286
130593 333408
94394 628953
279917 266301
148115 122201
443217 484535
135773 879092
965781 71611
703530 498468
983734 107745
861423 382243
806397 927580
398599 244442
771456 237485
197308 246704
784979 207395
664135 547096
902219 486976
516808 838945
791728 927314
27518 875825
305233 211299
