880211 532312
743110 692299
934772 505872
577866 895760
307005 699788
633460 843577
490847 955151
652150 414493
113718 773338
159640 917478
736732 540390
345960 186773
122076 79133
201869 17183
176819 85775
604460 814965
28048 309950
84559 36177
507232 308550
440105 934410
88259 284618
544186 841106
58701 222093
489870 773503
740531 1325
847485 200875
60930 874881
139103 42412
147997 340093
300849 359669
49508 354046
602662 311532
391767 819388
901241 78038
356377 483171
550465 984704
942442 25906
231448 414790
961934 802027
5243 517565
683207 380913
316908 972954
658416 607351
778086 662957
989087 565273
880433 521130
361946 437658
306350 979535
460823 999881
850162 606708
279072 841392
587954 161387
272806 959201
473971 789661
39354 66792
29378 271802
409535 352607
997550 947998
491655 38403
907715 675967
316896 873337
731979 132028
834082 512932
855531 51592
578739 546870
67171 534983
782629 572738
566835 609020
932022 970984
30372 254635
966806 204535
416768 647429
614692 435958
315534 209239
193827 81527
123762 247320
462236 602533
688121 533071
674081 751337
454738 564455
23462 548436
396557 140909
877907 879532
956027 179369
904360 489527
240365 258422
922995 279689
600439 628930
714936 260651
640114 80469
415758 838372
845605 97615
823842 849193
566464 400014
133297 261866
790129 180055
391637 203408
55369 405215
494980 720450
760515 150049
790499 465230
238001 480648
751559 457499
861707 23037
603616 828986
765011 742590
210838 578197
641499 332559
762519 133009
934000 979801
102952 609853
43613 79893
178418 901772
95312 631691
934914 715512
930600 867
355890 469760
732947 230670
796943 388850
152435 64834
323815 695809
112894 11779
108448 901315
314547 26512
423201 200562
306273 981054
456742 245465
53138 438423
443414 584160
480392 346942
965660 282117
107689 346788
886765 612487
952693 986163
380682 703679
821941 16230
267551 516701
66882 699004
594621 180954
322410 595396
512935 930792
778325 116701
970664 413080
929882 682593
700426 82935
59016 15797
552497 881273
333389 139205
67559 34952
758287 747474
266787 112018
800415 455258
816125 269760
113646 868930
648532 586739
709884 322159
10680 877139
221640 428614
148106 282217
643280 844013
623627 924092
98372 335415
829971 460663
669956 289243
215634 818799
722116 161485
18506 293025
571792 913885
215416 712136
208408 909374
207130 57782
164829 407142
742703 91392
640514 551530
475770 24876
657917 398274
312499 219539
887591 452501
418827 219385
962781 737342
475366 745978
814750 862953
387754 423467
464642 438978
751569 81916
88963 977549
728306 760472
35633 100987
985727 845228
861283 89103
201067 759430
271286 902488
193984 33527
650211 290848
320878 788830
36470 580880
826168 10722
1395 953085
581847 970500
7145 732054
486075 929175
627948 943998
251907 433469
525292 641598
49682 211026
983173 274025
262946 358649
728479 373842
45467 813131
11323 92816
802299 949317
774316 535158
954126 656353
212094 386800
560805 634649
516479 677424
609139 42451
626409 734658
343597 572716
783497 583454
501801 561866
725485 458374
833176 681186
962092 314929
987523 258427
355824 307600
366763 829760
632866 189858
378575 694260
98985 905781
49999 491277
157513 822378
56766 502010
560261 938444
563820 374670
101010 354138
518760 754763
715476 482741
340527 468397
126850 927314
203786 191577
432982 907967
657832 157960
645744 555476
144995 663549
144169 584308
825284 699991
671367 977884
679458 252767
36539 265004
672339 792299
707391 278668
