459645 917958
818519 310001
229588 179091
774462 646450
381649 493110
406319 351663
38285 563308
763027 26727
679077 728837
514719 501295
657032 50570
66644 947972
374132 517489
962701 100388
9867 700783
960758 376458
417725 84828
942538 380395
589557 27909
497882 327966
227711 251001
519767 613438
505900 495866
602508 149274
876530 538097
909153 737926
468805 882110
877199 982503
618796 44346
942433 128073
672386 39771
316172 799067
450399 927300
420633 420471
679881 844406
601798 136396
550043 231758
707926 851824
972974 365551
708335 820153
878968 840321
734454 868724
902091 609784
978528 951903
807174 434023
312114 850696
589088 691836
213236 473018
808317 754794
140741 464352
436827 367717
343928 503117
132451 24721
23283 656881
844271 397745
479172 965076
544221 128815
294833 245881
743430 191414
663490 229796
562910 188743
149396 830038
484785 173802
900423 61361
985069 437856
842965 776016
357146 640653
360964 816782
941534 217447
258226 580636
463622 450154
577590 735672
628644 710370
163115 877161
6695 113889
728336 924489
58340 385573
965116 89849
191341 396306
445834 732216
471726 664904
357932 711707
436206 969591
949543 509709
300088 65171
300213 682242
467596 482779
519021 13454
790231 336523
356755 98635
826641 696342
172850 933619
225729 861352
128062 678354
22564 195238
9477 501148
355053 184028
9253 877686
660970 253017
735688 205460
397872 176632
590390 925866
930563 870434
781841 918909
848014 838943
409819 885482
709823 655630
398912 301076
708943 427837
550782 928895
675377 398842
458332 712710
467222 812244
693788 738678
248748 643329
355642 143537
846129 684851
613483 92440
690996 110952
294227 973757
728049 669060
703302 400492
753931 290081
948635 45314
697526 667351
889357 517534
475100 222705
703348 458483
91844 184042
876937 164549
172221 579509
821764 195476
2696 537584
979699 787496
68399 118264
660854 813553
615623 521179
988211 335383
717438 629541
936230 208717
447890 849123
864424 440052
201558 910820
451068 234971
939733 959332
929750 397928
255403 505918
286318 498775
548573 485718
377599 445654
791070 82838
774014 683343
766318 753628
134763 793120
891139 128230
503977 870537
25385 461859
400198 137626
245343 227887
90240 673536
499148 976212
404879 452130
151328 419525
535551 586493
159758 517924
952082 216624
565319 886080
800838 562933
378639 157220
757065 392096
923850 720318
328390 796048
533885 110578
947207 163687
61998 919097
70068 720193
887157 66753
736297 543887
298857 505791
651924 139707
99416 100134
562860 782787
714446 666529
431242 484538
19365 418204
473956 476709
118634 836073
706291 316349
942347 402275
306560 872063
652289 883054
52131 125231
956645 792120
414527 685580
650538 707852
399079 503436
844578 497404
979059 515639
16745 506521
464575 222434
535931 242004
271156 956945
852797 36345
656459 563336
725336 151199
691833 744118
520305 571548
944569 633052
687310 1982
650713 627627
866974 511139
467349 398179
204131 336151
146706 666833
169304 587139
451691 828000
521088 159749
379999 85590
85453 300607
985946 400749
508933 329125
339149 464360
772705 905172
924425 653944
59485 842149
661946 267731
975567 564215
691723 688526
948904 80114
236557 958058
780719 705590
